[
    {
        "Id": "FG",
        "Name": "Fantasy"
    },
    {
        "Id": "DG",
        "Name": "Drama"
    },
    {
        "Id": "SFG",
        "Name": "Science-Fiction"
    },
    {
        "Id": "MG",
        "Name": "Mystery"
    }
]