[
    {
        "Id":"rented1", 
        "BookId": "9780751574951",
        "RentingDate": "2.5.2018",
        "UserId": "userExpired"
    },
    {
        "Id":"rented2", 
        "BookId": "9780241298961",
        "RentingDate": "2.5.2018",
        "UserId": "userExpired"
    },
    {
        "Id":"rented3", 
        "BookId": "9780007119318",
        "RentingDate": "2.5.2018",
        "UserId": "user"
    },
    {
        "Id":"rented4", 
        "BookId": "9780486284729",
        "RentingDate": "2.5.2018",
        "UserId": "user"
    }
]